%YAML 1.1
%TAG !u! tag:unity3d.com,2011:
--- !u!29 &1
OcclusionCullingSettings:
  m_ObjectHideFlags: 0
  serializedVersion: 2
  m_OcclusionBakeSettings:
    smallestOccluder: 5
    smallestHole: 0.25
    backfaceThreshold: 100
  m_SceneGUID: 00000000000000000000000000000000
  m_OcclusionCullingData: {fileID: 0}
--- !u!104 &2
RenderSettings:
  m_ObjectHideFlags: 0
  serializedVersion: 9
  m_Fog: 0
  m_FogColor: {r: 0.5, g: 0.5, b: 0.5, a: 1}
  m_FogMode: 3
  m_FogDensity: 0.01
  m_LinearFogStart: 0
  m_LinearFogEnd: 300
  m_AmbientSkyColor: {r: 0.2, g: 0.2, b: 0.2, a: 1}
  m_AmbientEquatorColor: {r: 0.2, g: 0.2, b: 0.2, a: 1}
  m_AmbientGroundColor: {r: 0.2, g: 0.2, b: 0.2, a: 1}
  m_AmbientIntensity: 1
  m_AmbientMode: 3
  m_SubtractiveShadowColor: {r: 0.42, g: 0.478, b: 0.627, a: 1}
  m_SkyboxMaterial: {fileID: 0}
  m_HaloStrength: 0.5
  m_FlareStrength: 1
  m_FlareFadeSpeed: 3
  m_HaloTexture: {fileID: 0}
  m_SpotCookie: {fileID: 10001, guid: 0000000000000000e000000000000000, type: 0}
  m_DefaultReflectionMode: 0
  m_DefaultReflectionResolution: 128
  m_ReflectionBounces: 1
  m_ReflectionIntensity: 1
  m_CustomReflection: {fileID: 0}
  m_Sun: {fileID: 0}
  m_IndirectSpecularColor: {r: 0, g: 0, b: 0, a: 1}
  m_UseRadianceAmbientProbe: 0
--- !u!157 &4
LightmapSettings:
  m_ObjectHideFlags: 0
  serializedVersion: 12
  m_GIWorkflowMode: 1
  m_GISettings:
    serializedVersion: 2
    m_BounceScale: 1
    m_IndirectOutputScale: 1
    m_AlbedoBoost: 1
    m_EnvironmentLightingMode: 0
    m_EnableBakedLightmaps: 1
    m_EnableRealtimeLightmaps: 0
  m_LightmapEditorSettings:
    serializedVersion: 12
    m_Resolution: 1
    m_BakeResolution: 50
    m_AtlasSize: 1024
    m_AO: 0
    m_AOMaxDistance: 1
    m_CompAOExponent: 0
    m_CompAOExponentDirect: 0
    m_ExtractAmbientOcclusion: 0
    m_Padding: 2
    m_LightmapParameters: {fileID: 0}
    m_LightmapsBakeMode: 1
    m_TextureCompression: 0
    m_FinalGather: 0
    m_FinalGatherFiltering: 1
    m_FinalGatherRayCount: 1024
    m_ReflectionCompression: 2
    m_MixedBakeMode: 1
    m_BakeBackend: 0
    m_PVRSampling: 1
    m_PVRDirectSampleCount: 32
    m_PVRSampleCount: 512
    m_PVRBounces: 2
    m_PVREnvironmentSampleCount: 512
    m_PVREnvironmentReferencePointCount: 2048
    m_PVRFilteringMode: 0
    m_PVRDenoiserTypeDirect: 0
    m_PVRDenoiserTypeIndirect: 0
    m_PVRDenoiserTypeAO: 0
    m_PVRFilterTypeDirect: 0
    m_PVRFilterTypeIndirect: 0
    m_PVRFilterTypeAO: 0
    m_PVREnvironmentMIS: 0
    m_PVRCulling: 1
    m_PVRFilteringGaussRadiusDirect: 1
    m_PVRFilteringGaussRadiusIndirect: 5
    m_PVRFilteringGaussRadiusAO: 2
    m_PVRFilteringAtrousPositionSigmaDirect: 0.5
    m_PVRFilteringAtrousPositionSigmaIndirect: 2
    m_PVRFilteringAtrousPositionSigmaAO: 1
    m_ExportTrainingData: 0
    m_TrainingDataDestination: TrainingData
    m_LightProbeSampleCountMultiplier: 4
  m_LightingDataAsset: {fileID: 0}
  m_LightingSettings: {fileID: 4890085278179872738, guid: 87386b93e55897a4db7338b8956c121c, type: 2}
--- !u!196 &5
NavMeshSettings:
  serializedVersion: 2
  m_ObjectHideFlags: 0
  m_BuildSettings:
    serializedVersion: 2
    agentTypeID: 0
    agentRadius: 0.5
    agentHeight: 2
    agentSlope: 45
    agentClimb: 0.4
    ledgeDropHeight: 0
    maxJumpAcrossDistance: 0
    minRegionArea: 2
    manualCellSize: 0
    cellSize: 0.16666666
    manualTileSize: 0
    tileSize: 256
    accuratePlacement: 0
    maxJobWorkers: 0
    preserveTilesOutsideBounds: 0
    debug:
      m_Flags: 0
  m_NavMeshData: {fileID: 0}
--- !u!4 &90977926 stripped
Transform:
  m_CorrespondingSourceObject: {fileID: 400020, guid: 19015a5957bbaa745a61cba005220542, type: 3}
  m_PrefabInstance: {fileID: 1497342384}
  m_PrefabAsset: {fileID: 0}
--- !u!1 &94102368 stripped
GameObject:
  m_CorrespondingSourceObject: {fileID: 100072, guid: ba128457d0ea5e3439dbe4a53b9d1273, type: 3}
  m_PrefabInstance: {fileID: 560668931}
  m_PrefabAsset: {fileID: 0}
--- !u!114 &94102370
MonoBehaviour:
  m_ObjectHideFlags: 0
  m_CorrespondingSourceObject: {fileID: 0}
  m_PrefabInstance: {fileID: 0}
  m_PrefabAsset: {fileID: 0}
  m_GameObject: {fileID: 94102368}
  m_Enabled: 1
  m_EditorHideFlags: 0
  m_Script: {fileID: 11500000, guid: baedd976e12657241bf7ff2d1c685342, type: 3}
  m_Name: 
  m_EditorClassIdentifier: 
  m_Direction: 1
  m_Center: {x: 0, y: -0.2, z: 0}
  m_Bound: 0
  m_Radius: 0.1
  m_Height: 0.6
--- !u!1 &143600401
GameObject:
  m_ObjectHideFlags: 0
  m_CorrespondingSourceObject: {fileID: 100000, guid: 8a4fd2ea0aec44e449f6dc1271079085, type: 3}
  m_PrefabInstance: {fileID: 0}
  m_PrefabAsset: {fileID: 0}
  serializedVersion: 6
  m_Component:
  - component: {fileID: 143600402}
  - component: {fileID: 143600404}
  - component: {fileID: 143600405}
  - component: {fileID: 143600406}
  m_Layer: 0
  m_Name: Player
  m_TagString: Player
  m_Icon: {fileID: 0}
  m_NavMeshLayer: 0
  m_StaticEditorFlags: 0
  m_IsActive: 1
--- !u!4 &143600402
Transform:
  m_ObjectHideFlags: 0
  m_CorrespondingSourceObject: {fileID: 400000, guid: 8a4fd2ea0aec44e449f6dc1271079085, type: 3}
  m_PrefabInstance: {fileID: 0}
  m_PrefabAsset: {fileID: 0}
  m_GameObject: {fileID: 143600401}
  m_LocalRotation: {x: 0, y: 0, z: 0, w: 1}
  m_LocalPosition: {x: 0, y: 0, z: 0}
  m_LocalScale: {x: 1, y: 1, z: 1}
  m_Children:
  - {fileID: 1237224165}
  m_Father: {fileID: 0}
  m_RootOrder: 3
  m_LocalEulerAnglesHint: {x: 0, y: 0, z: 0}
--- !u!114 &143600404
MonoBehaviour:
  m_ObjectHideFlags: 0
  m_CorrespondingSourceObject: {fileID: 0}
  m_PrefabInstance: {fileID: 0}
  m_PrefabAsset: {fileID: 0}
  m_GameObject: {fileID: 143600401}
  m_Enabled: 1
  m_EditorHideFlags: 0
  m_Script: {fileID: 11500000, guid: f9ac8d30c6a0d9642a11e5be4c440740, type: 3}
  m_Name: 
  m_EditorClassIdentifier: 
  m_Root: {fileID: 1240282084}
  m_UpdateRate: 60
  m_UpdateMode: 0
  m_Damping: 0.2
  m_DampingDistrib:
    serializedVersion: 2
    m_Curve: []
    m_PreInfinity: 2
    m_PostInfinity: 2
    m_RotationOrder: 4
  m_Elasticity: 0.1
  m_ElasticityDistrib:
    serializedVersion: 2
    m_Curve: []
    m_PreInfinity: 2
    m_PostInfinity: 2
    m_RotationOrder: 4
  m_Stiffness: 0.8
  m_StiffnessDistrib:
    serializedVersion: 2
    m_Curve: []
    m_PreInfinity: 2
    m_PostInfinity: 2
    m_RotationOrder: 4
  m_Inert: 0.5
  m_InertDistrib:
    serializedVersion: 2
    m_Curve: []
    m_PreInfinity: 2
    m_PostInfinity: 2
    m_RotationOrder: 4
  m_Friction: 0
  m_FrictionDistrib:
    serializedVersion: 2
    m_Curve: []
    m_PreInfinity: 2
    m_PostInfinity: 2
    m_RotationOrder: 4
  m_Radius: 0
  m_RadiusDistrib:
    serializedVersion: 2
    m_Curve: []
    m_PreInfinity: 2
    m_PostInfinity: 2
    m_RotationOrder: 4
  m_EndLength: 0
  m_EndOffset: {x: -0.1, y: -0.1, z: 0.3}
  m_Gravity: {x: 0, y: 0, z: 0}
  m_Force: {x: 0, y: 0, z: 0}
  m_Colliders: []
  m_Exclusions: []
  m_FreezeAxis: 0
  m_DistantDisable: 0
  m_ReferenceObject: {fileID: 0}
  m_DistanceToObject: 20
--- !u!114 &143600405
MonoBehaviour:
  m_ObjectHideFlags: 0
  m_CorrespondingSourceObject: {fileID: 0}
  m_PrefabInstance: {fileID: 0}
  m_PrefabAsset: {fileID: 0}
  m_GameObject: {fileID: 143600401}
  m_Enabled: 1
  m_EditorHideFlags: 0
  m_Script: {fileID: 11500000, guid: f9ac8d30c6a0d9642a11e5be4c440740, type: 3}
  m_Name: 
  m_EditorClassIdentifier: 
  m_Root: {fileID: 1610302986}
  m_UpdateRate: 60
  m_UpdateMode: 0
  m_Damping: 0.2
  m_DampingDistrib:
    serializedVersion: 2
    m_Curve: []
    m_PreInfinity: 2
    m_PostInfinity: 2
    m_RotationOrder: 4
  m_Elasticity: 0.1
  m_ElasticityDistrib:
    serializedVersion: 2
    m_Curve: []
    m_PreInfinity: 2
    m_PostInfinity: 2
    m_RotationOrder: 4
  m_Stiffness: 0.8
  m_StiffnessDistrib:
    serializedVersion: 2
    m_Curve: []
    m_PreInfinity: 2
    m_PostInfinity: 2
    m_RotationOrder: 4
  m_Inert: 0.5
  m_InertDistrib:
    serializedVersion: 2
    m_Curve: []
    m_PreInfinity: 2
    m_PostInfinity: 2
    m_RotationOrder: 4
  m_Friction: 0
  m_FrictionDistrib:
    serializedVersion: 2
    m_Curve: []
    m_PreInfinity: 2
    m_PostInfinity: 2
    m_RotationOrder: 4
  m_Radius: 0
  m_RadiusDistrib:
    serializedVersion: 2
    m_Curve:
    - serializedVersion: 3
      time: 0.28642094
      value: 0.8996325
      inSlope: -0.9737102
      outSlope: -0.11496421
      tangentMode: 1
      weightedMode: 0
      inWeight: 0.33333334
      outWeight: 0.33333334
    m_PreInfinity: 2
    m_PostInfinity: 2
    m_RotationOrder: 4
  m_EndLength: 0
  m_EndOffset: {x: 0.1, y: -0.1, z: 0.3}
  m_Gravity: {x: 0, y: 0, z: 0}
  m_Force: {x: 0, y: 0, z: 0}
  m_Colliders: []
  m_Exclusions: []
  m_FreezeAxis: 0
  m_DistantDisable: 0
  m_ReferenceObject: {fileID: 0}
  m_DistanceToObject: 20
--- !u!114 &143600406
MonoBehaviour:
  m_ObjectHideFlags: 0
  m_CorrespondingSourceObject: {fileID: 0}
  m_PrefabInstance: {fileID: 0}
  m_PrefabAsset: {fileID: 0}
  m_GameObject: {fileID: 143600401}
  m_Enabled: 1
  m_EditorHideFlags: 0
  m_Script: {fileID: 11500000, guid: f9ac8d30c6a0d9642a11e5be4c440740, type: 3}
  m_Name: 
  m_EditorClassIdentifier: 
  m_Root: {fileID: 90977926}
  m_UpdateRate: 60
  m_UpdateMode: 0
  m_Damping: 0.2
  m_DampingDistrib:
    serializedVersion: 2
    m_Curve: []
    m_PreInfinity: 2
    m_PostInfinity: 2
    m_RotationOrder: 4
  m_Elasticity: 0.05
  m_ElasticityDistrib:
    serializedVersion: 2
    m_Curve: []
    m_PreInfinity: 2
    m_PostInfinity: 2
    m_RotationOrder: 4
  m_Stiffness: 0.7
  m_StiffnessDistrib:
    serializedVersion: 2
    m_Curve: []
    m_PreInfinity: 2
    m_PostInfinity: 2
    m_RotationOrder: 4
  m_Inert: 0.5
  m_InertDistrib:
    serializedVersion: 2
    m_Curve: []
    m_PreInfinity: 2
    m_PostInfinity: 2
    m_RotationOrder: 4
  m_Friction: 0
  m_FrictionDistrib:
    serializedVersion: 2
    m_Curve: []
    m_PreInfinity: 2
    m_PostInfinity: 2
    m_RotationOrder: 4
  m_Radius: 0.15
  m_RadiusDistrib:
    serializedVersion: 2
    m_Curve:
    - serializedVersion: 3
      time: 0.004166667
      value: 1.0124999
      inSlope: -0.762605
      outSlope: -0.762605
      tangentMode: 34
      weightedMode: 0
      inWeight: 0.33333334
      outWeight: 0.33333334
    - serializedVersion: 3
      time: 0.99583334
      value: 0.25624996
      inSlope: -0.762605
      outSlope: -0.762605
      tangentMode: 34
      weightedMode: 0
      inWeight: 0.33333334
      outWeight: 0.33333334
    m_PreInfinity: 2
    m_PostInfinity: 2
    m_RotationOrder: 4
  m_EndLength: 0
  m_EndOffset: {x: 0, y: 0, z: 0}
  m_Gravity: {x: 0, y: -0.002, z: 0}
  m_Force: {x: 0, y: 0, z: 0}
  m_Colliders:
  - {fileID: 94102370}
  - {fileID: 838898607}
  m_Exclusions: []
  m_FreezeAxis: 0
  m_DistantDisable: 0
  m_ReferenceObject: {fileID: 0}
  m_DistanceToObject: 20
--- !u!1 &249192883
GameObject:
  m_ObjectHideFlags: 0
  m_CorrespondingSourceObject: {fileID: 0}
  m_PrefabInstance: {fileID: 0}
  m_PrefabAsset: {fileID: 0}
  serializedVersion: 6
  m_Component:
  - component: {fileID: 249192888}
  - component: {fileID: 249192887}
  - component: {fileID: 249192885}
  - component: {fileID: 249192884}
  m_Layer: 0
  m_Name: Main Camera
  m_TagString: MainCamera
  m_Icon: {fileID: 0}
  m_NavMeshLayer: 0
  m_StaticEditorFlags: 0
  m_IsActive: 1
--- !u!81 &249192884
AudioListener:
  m_ObjectHideFlags: 0
  m_CorrespondingSourceObject: {fileID: 0}
  m_PrefabInstance: {fileID: 0}
  m_PrefabAsset: {fileID: 0}
  m_GameObject: {fileID: 249192883}
  m_Enabled: 1
--- !u!124 &249192885
Behaviour:
  m_ObjectHideFlags: 0
  m_CorrespondingSourceObject: {fileID: 0}
  m_PrefabInstance: {fileID: 0}
  m_PrefabAsset: {fileID: 0}
  m_GameObject: {fileID: 249192883}
  m_Enabled: 1
--- !u!20 &249192887
Camera:
  m_ObjectHideFlags: 0
  m_CorrespondingSourceObject: {fileID: 0}
  m_PrefabInstance: {fileID: 0}
  m_PrefabAsset: {fileID: 0}
  m_GameObject: {fileID: 249192883}
  m_Enabled: 1
  serializedVersion: 2
  m_ClearFlags: 1
  m_BackGroundColor: {r: 0.19215687, g: 0.3019608, b: 0.4745098, a: 0.019607844}
  m_projectionMatrixMode: 1
  m_GateFitMode: 2
  m_FOVAxisMode: 0
  m_SensorSize: {x: 36, y: 24}
  m_LensShift: {x: 0, y: 0}
  m_FocalLength: 50
  m_NormalizedViewPortRect:
    serializedVersion: 2
    x: 0
    y: 0
    width: 1
    height: 1
  near clip plane: 0.3
  far clip plane: 1000
  field of view: 60
  orthographic: 0
  orthographic size: 5
  m_Depth: -1
  m_CullingMask:
    serializedVersion: 2
    m_Bits: 4294967295
  m_RenderingPath: -1
  m_TargetTexture: {fileID: 0}
  m_TargetDisplay: 0
  m_TargetEye: 3
  m_HDR: 0
  m_AllowMSAA: 1
  m_AllowDynamicResolution: 0
  m_ForceIntoRT: 0
  m_OcclusionCulling: 1
  m_StereoConvergence: 10
  m_StereoSeparation: 0.022
--- !u!4 &249192888
Transform:
  m_ObjectHideFlags: 0
  m_CorrespondingSourceObject: {fileID: 0}
  m_PrefabInstance: {fileID: 0}
  m_PrefabAsset: {fileID: 0}
  m_GameObject: {fileID: 249192883}
  m_LocalRotation: {x: 0, y: 0.94676715, z: 0, w: 0.32191932}
  m_LocalPosition: {x: -1.0038998, y: 1, z: 2.1806068}
  m_LocalScale: {x: 1, y: 1, z: 1}
  m_Children: []
  m_Father: {fileID: 0}
  m_RootOrder: 2
  m_LocalEulerAnglesHint: {x: 0, y: 0, z: 0}
--- !u!1001 &560668931
PrefabInstance:
  m_ObjectHideFlags: 0
  serializedVersion: 2
  m_Modification:
    m_TransformParent: {fileID: 143600402}
    m_Modifications:
    - target: {fileID: 400004, guid: ba128457d0ea5e3439dbe4a53b9d1273, type: 3}
      propertyPath: m_LocalPosition.x
      value: 0
      objectReference: {fileID: 0}
    - target: {fileID: 400004, guid: ba128457d0ea5e3439dbe4a53b9d1273, type: 3}
      propertyPath: m_LocalPosition.y
      value: 0
      objectReference: {fileID: 0}
    - target: {fileID: 400004, guid: ba128457d0ea5e3439dbe4a53b9d1273, type: 3}
      propertyPath: m_LocalPosition.z
      value: 0
      objectReference: {fileID: 0}
    - target: {fileID: 400004, guid: ba128457d0ea5e3439dbe4a53b9d1273, type: 3}
      propertyPath: m_LocalRotation.w
      value: 1
      objectReference: {fileID: 0}
    - target: {fileID: 400004, guid: ba128457d0ea5e3439dbe4a53b9d1273, type: 3}
      propertyPath: m_LocalRotation.x
      value: 0
      objectReference: {fileID: 0}
    - target: {fileID: 400004, guid: ba128457d0ea5e3439dbe4a53b9d1273, type: 3}
      propertyPath: m_LocalRotation.y
      value: 0
      objectReference: {fileID: 0}
    - target: {fileID: 400004, guid: ba128457d0ea5e3439dbe4a53b9d1273, type: 3}
      propertyPath: m_LocalRotation.z
      value: 0
      objectReference: {fileID: 0}
    - target: {fileID: 11100000, guid: ba128457d0ea5e3439dbe4a53b9d1273, type: 3}
      propertyPath: m_Enabled
      value: 1
      objectReference: {fileID: 0}
    m_RemovedComponents: []
  m_SourcePrefab: {fileID: 100100000, guid: ba128457d0ea5e3439dbe4a53b9d1273, type: 3}
--- !u!1 &838898605 stripped
GameObject:
  m_CorrespondingSourceObject: {fileID: 100140, guid: ba128457d0ea5e3439dbe4a53b9d1273, type: 3}
  m_PrefabInstance: {fileID: 560668931}
  m_PrefabAsset: {fileID: 0}
--- !u!114 &838898607
MonoBehaviour:
  m_ObjectHideFlags: 0
  m_CorrespondingSourceObject: {fileID: 0}
  m_PrefabInstance: {fileID: 0}
  m_PrefabAsset: {fileID: 0}
  m_GameObject: {fileID: 838898605}
  m_Enabled: 1
  m_EditorHideFlags: 0
  m_Script: {fileID: 11500000, guid: baedd976e12657241bf7ff2d1c685342, type: 3}
  m_Name: 
  m_EditorClassIdentifier: 
  m_Direction: 1
  m_Center: {x: 0, y: -0.2, z: 0}
  m_Bound: 0
  m_Radius: 0.1
  m_Height: 0.6
--- !u!4 &1237224165 stripped
Transform:
  m_CorrespondingSourceObject: {fileID: 400004, guid: ba128457d0ea5e3439dbe4a53b9d1273, type: 3}
  m_PrefabInstance: {fileID: 560668931}
  m_PrefabAsset: {fileID: 0}
--- !u!4 &1240282084 stripped
Transform:
  m_CorrespondingSourceObject: {fileID: 400046, guid: ba128457d0ea5e3439dbe4a53b9d1273, type: 3}
  m_PrefabInstance: {fileID: 560668931}
  m_PrefabAsset: {fileID: 0}
--- !u!1 &1273446005
GameObject:
  m_ObjectHideFlags: 0
  m_CorrespondingSourceObject: {fileID: 0}
  m_PrefabInstance: {fileID: 0}
  m_PrefabAsset: {fileID: 0}
  serializedVersion: 6
  m_Component:
  - component: {fileID: 1273446007}
  - component: {fileID: 1273446006}
  m_Layer: 0
  m_Name: Directional light
  m_TagString: Untagged
  m_Icon: {fileID: 0}
  m_NavMeshLayer: 0
  m_StaticEditorFlags: 0
  m_IsActive: 1
--- !u!108 &1273446006
Light:
  m_ObjectHideFlags: 0
  m_CorrespondingSourceObject: {fileID: 0}
  m_PrefabInstance: {fileID: 0}
  m_PrefabAsset: {fileID: 0}
  m_GameObject: {fileID: 1273446005}
  m_Enabled: 1
  serializedVersion: 10
  m_Type: 1
  m_Shape: 0
  m_Color: {r: 1, g: 1, b: 1, a: 1}
  m_Intensity: 0.6
  m_Range: 10
  m_SpotAngle: 30
  m_InnerSpotAngle: 21.80208
  m_CookieSize: 10
  m_Shadows:
    m_Type: 0
    m_Resolution: -1
    m_CustomResolution: -1
    m_Strength: 1
    m_Bias: 0.05
    m_NormalBias: 0.4
    m_NearPlane: 0.2
    m_CullingMatrixOverride:
      e00: 1
      e01: 0
      e02: 0
      e03: 0
      e10: 0
      e11: 1
      e12: 0
      e13: 0
      e20: 0
      e21: 0
      e22: 1
      e23: 0
      e30: 0
      e31: 0
      e32: 0
      e33: 1
    m_UseCullingMatrixOverride: 0
  m_Cookie: {fileID: 0}
  m_DrawHalo: 0
  m_Flare: {fileID: 0}
  m_RenderMode: 0
  m_CullingMask:
    serializedVersion: 2
    m_Bits: 4294967295
  m_RenderingLayerMask: 1
  m_Lightmapping: 1
  m_LightShadowCasterMode: 0
  m_AreaSize: {x: 1, y: 1}
  m_BounceIntensity: 1
  m_ColorTemperature: 6570
  m_UseColorTemperature: 0
  m_BoundingSphereOverride: {x: 0, y: 0, z: 0, w: 0}
  m_UseBoundingSphereOverride: 0
  m_UseViewFrustumForShadowCasterCull: 1
  m_ShadowRadius: 0
  m_ShadowAngle: 0
--- !u!4 &1273446007
Transform:
  m_ObjectHideFlags: 0
  m_CorrespondingSourceObject: {fileID: 0}
  m_PrefabInstance: {fileID: 0}
  m_PrefabAsset: {fileID: 0}
  m_GameObject: {fileID: 1273446005}
  m_LocalRotation: {x: -0.1614625, y: -0.9591772, z: 0.16742207, w: -0.16086924}
  m_LocalPosition: {x: 0, y: 3, z: 0}
  m_LocalScale: {x: 1, y: 1, z: 1}
  m_Children: []
  m_Father: {fileID: 0}
  m_RootOrder: 1
  m_LocalEulerAnglesHint: {x: 0, y: 0, z: 0}
--- !u!1001 &1497342384
PrefabInstance:
  m_ObjectHideFlags: 0
  serializedVersion: 2
  m_Modification:
    m_TransformParent: {fileID: 2086915445}
    m_Modifications:
    - target: {fileID: 400000, guid: 19015a5957bbaa745a61cba005220542, type: 3}
      propertyPath: m_LocalPosition.x
      value: .000276203005
      objectReference: {fileID: 0}
    - target: {fileID: 400000, guid: 19015a5957bbaa745a61cba005220542, type: 3}
      propertyPath: m_LocalPosition.y
      value: -.00660187891
      objectReference: {fileID: 0}
    - target: {fileID: 400000, guid: 19015a5957bbaa745a61cba005220542, type: 3}
      propertyPath: m_LocalPosition.z
      value: -2.88577301e-10
      objectReference: {fileID: 0}
    - target: {fileID: 400000, guid: 19015a5957bbaa745a61cba005220542, type: 3}
      propertyPath: m_LocalRotation.w
      value: .707106829
      objectReference: {fileID: 0}
    - target: {fileID: 400000, guid: 19015a5957bbaa745a61cba005220542, type: 3}
      propertyPath: m_LocalRotation.x
      value: 2.33569484e-08
      objectReference: {fileID: 0}
    - target: {fileID: 400000, guid: 19015a5957bbaa745a61cba005220542, type: 3}
      propertyPath: m_LocalRotation.y
      value: -2.33569484e-08
      objectReference: {fileID: 0}
    - target: {fileID: 400000, guid: 19015a5957bbaa745a61cba005220542, type: 3}
      propertyPath: m_LocalRotation.z
      value: -.707106829
      objectReference: {fileID: 0}
    - target: {fileID: 400002, guid: 19015a5957bbaa745a61cba005220542, type: 3}
      propertyPath: m_LocalPosition.x
      value: -.237109601
      objectReference: {fileID: 0}
    - target: {fileID: 400002, guid: 19015a5957bbaa745a61cba005220542, type: 3}
      propertyPath: m_LocalPosition.y
      value: -3.86498868e-08
      objectReference: {fileID: 0}
    - target: {fileID: 400002, guid: 19015a5957bbaa745a61cba005220542, type: 3}
      propertyPath: m_LocalPosition.z
      value: 1.03641966e-08
      objectReference: {fileID: 0}
    - target: {fileID: 400002, guid: 19015a5957bbaa745a61cba005220542, type: 3}
      propertyPath: m_LocalRotation.w
      value: .994506896
      objectReference: {fileID: 0}
    - target: {fileID: 400002, guid: 19015a5957bbaa745a61cba005220542, type: 3}
      propertyPath: m_LocalRotation.x
      value: -3.65551231e-14
      objectReference: {fileID: 0}
    - target: {fileID: 400002, guid: 19015a5957bbaa745a61cba005220542, type: 3}
      propertyPath: m_LocalRotation.y
      value: 4.19035161e-15
      objectReference: {fileID: 0}
    - target: {fileID: 400002, guid: 19015a5957bbaa745a61cba005220542, type: 3}
      propertyPath: m_LocalRotation.z
      value: .104671292
      objectReference: {fileID: 0}
    - target: {fileID: 400004, guid: 19015a5957bbaa745a61cba005220542, type: 3}
      propertyPath: m_LocalPosition.x
      value: -.273902506
      objectReference: {fileID: 0}
    - target: {fileID: 400004, guid: 19015a5957bbaa745a61cba005220542, type: 3}
      propertyPath: m_LocalPosition.y
      value: -4.7683713e-08
      objectReference: {fileID: 0}
    - target: {fileID: 400004, guid: 19015a5957bbaa745a61cba005220542, type: 3}
      propertyPath: m_LocalPosition.z
      value: 1.19724319e-08
      objectReference: {fileID: 0}
    - target: {fileID: 400004, guid: 19015a5957bbaa745a61cba005220542, type: 3}
      propertyPath: m_LocalRotation.w
      value: .996187627
      objectReference: {fileID: 0}
    - target: {fileID: 400004, guid: 19015a5957bbaa745a61cba005220542, type: 3}
      propertyPath: m_LocalRotation.x
      value: -3.34032593e-14
      objectReference: {fileID: 0}
    - target: {fileID: 400004, guid: 19015a5957bbaa745a61cba005220542, type: 3}
      propertyPath: m_LocalRotation.y
      value: 1.07828522e-14
      objectReference: {fileID: 0}
    - target: {fileID: 400004, guid: 19015a5957bbaa745a61cba005220542, type: 3}
      propertyPath: m_LocalRotation.z
      value: .0872370228
      objectReference: {fileID: 0}
    - target: {fileID: 400006, guid: 19015a5957bbaa745a61cba005220542, type: 3}
      propertyPath: m_LocalPosition.x
      value: -.233021542
      objectReference: {fileID: 0}
    - target: {fileID: 400006, guid: 19015a5957bbaa745a61cba005220542, type: 3}
      propertyPath: m_LocalPosition.y
      value: -3.81469718e-08
      objectReference: {fileID: 0}
    - target: {fileID: 400006, guid: 19015a5957bbaa745a61cba005220542, type: 3}
      propertyPath: m_LocalPosition.z
      value: 1.01855058e-08
      objectReference: {fileID: 0}
    - target: {fileID: 400006, guid: 19015a5957bbaa745a61cba005220542, type: 3}
      propertyPath: m_LocalRotation.w
      value: .989816129
      objectReference: {fileID: 0}
    - target: {fileID: 400006, guid: 19015a5957bbaa745a61cba005220542, type: 3}
      propertyPath: m_LocalRotation.x
      value: -2.77442271e-14
      objectReference: {fileID: 0}
    - target: {fileID: 400006, guid: 19015a5957bbaa745a61cba005220542, type: 3}
      propertyPath: m_LocalRotation.y
      value: 1.74333594e-14
      objectReference: {fileID: 0}
    - target: {fileID: 400006, guid: 19015a5957bbaa745a61cba005220542, type: 3}
      propertyPath: m_LocalRotation.z
      value: .142351687
      objectReference: {fileID: 0}
    - target: {fileID: 400008, guid: 19015a5957bbaa745a61cba005220542, type: 3}
      propertyPath: m_LocalPosition.x
      value: -.163523868
      objectReference: {fileID: 0}
    - target: {fileID: 400008, guid: 19015a5957bbaa745a61cba005220542, type: 3}
      propertyPath: m_LocalPosition.y
      value: 0
      objectReference: {fileID: 0}
    - target: {fileID: 400008, guid: 19015a5957bbaa745a61cba005220542, type: 3}
      propertyPath: m_LocalPosition.z
      value: 7.1477233e-09
      objectReference: {fileID: 0}
    - target: {fileID: 400008, guid: 19015a5957bbaa745a61cba005220542, type: 3}
      propertyPath: m_LocalRotation.w
      value: .996882558
      objectReference: {fileID: 0}
    - target: {fileID: 400008, guid: 19015a5957bbaa745a61cba005220542, type: 3}
      propertyPath: m_LocalRotation.x
      value: -2.33242567e-14
      objectReference: {fileID: 0}
    - target: {fileID: 400008, guid: 19015a5957bbaa745a61cba005220542, type: 3}
      propertyPath: m_LocalRotation.y
      value: 2.38246363e-14
      objectReference: {fileID: 0}
    - target: {fileID: 400008, guid: 19015a5957bbaa745a61cba005220542, type: 3}
      propertyPath: m_LocalRotation.z
      value: .0788995922
      objectReference: {fileID: 0}
    - target: {fileID: 400010, guid: 19015a5957bbaa745a61cba005220542, type: 3}
      propertyPath: m_LocalPosition.x
      value: -.269845426
      objectReference: {fileID: 0}
    - target: {fileID: 400010, guid: 19015a5957bbaa745a61cba005220542, type: 3}
      propertyPath: m_LocalPosition.y
      value: 0
      objectReference: {fileID: 0}
    - target: {fileID: 400010, guid: 19015a5957bbaa745a61cba005220542, type: 3}
      propertyPath: m_LocalPosition.z
      value: 1.20644108e-08
      objectReference: {fileID: 0}
    - target: {fileID: 400010, guid: 19015a5957bbaa745a61cba005220542, type: 3}
      propertyPath: m_LocalRotation.w
      value: .997745156
      objectReference: {fileID: 0}
    - target: {fileID: 400010, guid: 19015a5957bbaa745a61cba005220542, type: 3}
      propertyPath: m_LocalRotation.x
      value: -1.85772452e-14
      objectReference: {fileID: 0}
    - target: {fileID: 400010, guid: 19015a5957bbaa745a61cba005220542, type: 3}
      propertyPath: m_LocalRotation.y
      value: 2.47326353e-14
      objectReference: {fileID: 0}
    - target: {fileID: 400010, guid: 19015a5957bbaa745a61cba005220542, type: 3}
      propertyPath: m_LocalRotation.z
      value: .067116484
      objectReference: {fileID: 0}
    - target: {fileID: 400012, guid: 19015a5957bbaa745a61cba005220542, type: 3}
      propertyPath: m_LocalPosition.x
      value: -.183964223
      objectReference: {fileID: 0}
    - target: {fileID: 400012, guid: 19015a5957bbaa745a61cba005220542, type: 3}
      propertyPath: m_LocalPosition.y
      value: 3.81469718e-08
      objectReference: {fileID: 0}
    - target: {fileID: 400012, guid: 19015a5957bbaa745a61cba005220542, type: 3}
      propertyPath: m_LocalPosition.z
      value: 8.04060107e-09
      objectReference: {fileID: 0}
    - target: {fileID: 400012, guid: 19015a5957bbaa745a61cba005220542, type: 3}
      propertyPath: m_LocalRotation.w
      value: .984354258
      objectReference: {fileID: 0}
    - target: {fileID: 400012, guid: 19015a5957bbaa745a61cba005220542, type: 3}
      propertyPath: m_LocalRotation.x
      value: -1.29496388e-14
      objectReference: {fileID: 0}
    - target: {fileID: 400012, guid: 19015a5957bbaa745a61cba005220542, type: 3}
      propertyPath: m_LocalRotation.y
      value: 2.88675842e-14
      objectReference: {fileID: 0}
    - target: {fileID: 400012, guid: 19015a5957bbaa745a61cba005220542, type: 3}
      propertyPath: m_LocalRotation.z
      value: .176200867
      objectReference: {fileID: 0}
    - target: {fileID: 400014, guid: 19015a5957bbaa745a61cba005220542, type: 3}
      propertyPath: m_LocalPosition.x
      value: -.159488067
      objectReference: {fileID: 0}
    - target: {fileID: 400014, guid: 19015a5957bbaa745a61cba005220542, type: 3}
      propertyPath: m_LocalPosition.y
      value: 0
      objectReference: {fileID: 0}
    - target: {fileID: 400014, guid: 19015a5957bbaa745a61cba005220542, type: 3}
      propertyPath: m_LocalPosition.z
      value: 6.6989605e-09
      objectReference: {fileID: 0}
    - target: {fileID: 400014, guid: 19015a5957bbaa745a61cba005220542, type: 3}
      propertyPath: m_LocalRotation.x
      value: -7.54951487e-15
      objectReference: {fileID: 0}
    - target: {fileID: 400014, guid: 19015a5957bbaa745a61cba005220542, type: 3}
      propertyPath: m_LocalRotation.y
      value: 3.07254154e-14
      objectReference: {fileID: 0}
    - target: {fileID: 400014, guid: 19015a5957bbaa745a61cba005220542, type: 3}
      propertyPath: m_LocalRotation.z
      value: 7.45057882e-09
      objectReference: {fileID: 0}
    - target: {fileID: 400016, guid: 19015a5957bbaa745a61cba005220542, type: 3}
      propertyPath: m_RootOrder
      value: 2
      objectReference: {fileID: 0}
    - target: {fileID: 400016, guid: 19015a5957bbaa745a61cba005220542, type: 3}
      propertyPath: m_LocalScale.x
      value: .800000012
      objectReference: {fileID: 0}
    - target: {fileID: 400016, guid: 19015a5957bbaa745a61cba005220542, type: 3}
      propertyPath: m_LocalScale.y
      value: .800000012
      objectReference: {fileID: 0}
    - target: {fileID: 400016, guid: 19015a5957bbaa745a61cba005220542, type: 3}
      propertyPath: m_LocalScale.z
      value: .800000012
      objectReference: {fileID: 0}
    - target: {fileID: 400016, guid: 19015a5957bbaa745a61cba005220542, type: 3}
      propertyPath: m_LocalPosition.x
      value: 0
      objectReference: {fileID: 0}
    - target: {fileID: 400016, guid: 19015a5957bbaa745a61cba005220542, type: 3}
      propertyPath: m_LocalPosition.y
      value: 0
      objectReference: {fileID: 0}
    - target: {fileID: 400016, guid: 19015a5957bbaa745a61cba005220542, type: 3}
      propertyPath: m_LocalPosition.z
      value: 0
      objectReference: {fileID: 0}
    - target: {fileID: 400016, guid: 19015a5957bbaa745a61cba005220542, type: 3}
      propertyPath: m_LocalRotation.w
      value: 1.89660824e-07
      objectReference: {fileID: 0}
    - target: {fileID: 400016, guid: 19015a5957bbaa745a61cba005220542, type: 3}
      propertyPath: m_LocalRotation.x
      value: 1.89660824e-07
      objectReference: {fileID: 0}
    - target: {fileID: 400016, guid: 19015a5957bbaa745a61cba005220542, type: 3}
      propertyPath: m_LocalRotation.y
      value: .707106829
      objectReference: {fileID: 0}
    - target: {fileID: 400016, guid: 19015a5957bbaa745a61cba005220542, type: 3}
      propertyPath: m_LocalRotation.z
      value: -.707106829
      objectReference: {fileID: 0}
    m_RemovedComponents: []
  m_SourcePrefab: {fileID: 100100000, guid: 19015a5957bbaa745a61cba005220542, type: 3}
--- !u!4 &1610302986 stripped
Transform:
  m_CorrespondingSourceObject: {fileID: 400114, guid: ba128457d0ea5e3439dbe4a53b9d1273, type: 3}
  m_PrefabInstance: {fileID: 560668931}
  m_PrefabAsset: {fileID: 0}
--- !u!1 &1749629814
GameObject:
  m_ObjectHideFlags: 0
  m_CorrespondingSourceObject: {fileID: 0}
  m_PrefabInstance: {fileID: 0}
  m_PrefabAsset: {fileID: 0}
  serializedVersion: 6
  m_Component:
  - component: {fileID: 1749629816}
  - component: {fileID: 1749629815}
  m_Layer: 0
  m_Name: Demo1
  m_TagString: GameController
  m_Icon: {fileID: 0}
  m_NavMeshLayer: 0
  m_StaticEditorFlags: 0
  m_IsActive: 1
--- !u!114 &1749629815
MonoBehaviour:
  m_ObjectHideFlags: 0
  m_CorrespondingSourceObject: {fileID: 0}
  m_PrefabInstance: {fileID: 0}
  m_PrefabAsset: {fileID: 0}
  m_GameObject: {fileID: 1749629814}
  m_Enabled: 1
  m_EditorHideFlags: 0
  m_Script: {fileID: 11500000, guid: 178320cedf292cb4f8d6c0b737b35953, type: 3}
  m_Name: 
  m_EditorClassIdentifier: 
  m_Player: {fileID: 143600401}
--- !u!4 &1749629816
Transform:
  m_ObjectHideFlags: 0
  m_CorrespondingSourceObject: {fileID: 0}
  m_PrefabInstance: {fileID: 0}
  m_PrefabAsset: {fileID: 0}
  m_GameObject: {fileID: 1749629814}
  m_LocalRotation: {x: 0, y: 0, z: 0, w: 1}
  m_LocalPosition: {x: 0.4343313, y: -0.07096064, z: 0.36408234}
  m_LocalScale: {x: 1, y: 1, z: 1}
  m_Children: []
  m_Father: {fileID: 0}
  m_RootOrder: 0
  m_LocalEulerAnglesHint: {x: 0, y: 0, z: 0}
--- !u!4 &2086915445 stripped
Transform:
  m_CorrespondingSourceObject: {fileID: 400014, guid: ba128457d0ea5e3439dbe4a53b9d1273, type: 3}
  m_PrefabInstance: {fileID: 560668931}
  m_PrefabAsset: {fileID: 0}
